<svg width="12" height="12" viewBox="0 0 12 12" fill="none" xmlns="http://www.w3.org/2000/svg">
<rect x="0.375" y="0.375" width="11.25" height="11.25" rx="2.625" fill="#A0A0A0" stroke="#A0A0A0" stroke-width="0.75"/>
<path d="M10.0781 3.09204L10.078 3.09213L5.65748 8.98707C5.65746 8.9871 5.65744 8.98713 5.65741 8.98716C5.53649 9.14851 5.36032 9.25 5.16339 9.25C4.96643 9.25 4.79022 9.14848 4.6693 8.98707L2.92191 6.65467C2.6927 6.34872 2.6927 5.8815 2.92191 5.57555C3.04204 5.4152 3.21685 5.31262 3.41391 5.31262C3.61097 5.31262 3.78578 5.4152 3.90592 5.57555L5.16548 7.2568L9.09408 2.01293C9.21422 1.85257 9.38903 1.75 9.58609 1.75C9.78315 1.75 9.95796 1.85257 10.0781 2.01293M10.0781 3.09204V2.01293L9.88075 2.16077L10.0781 2.01293M10.0781 3.09204C10.3073 2.7861 10.3073 2.31887 10.0781 2.01293M10.0781 3.09204L10.0781 2.01293" fill="white" stroke="white" stroke-width="0.5"/>
</svg>
